<?xml version="1.0" encoding="UTF-8"?>
<symbol version="7" name="clockgen">
    <symboltype>BLOCK</symboltype>
    <timestamp>2018-5-14T14:56:46</timestamp>
    <pin polarity="Input" x="0" y="112" name="clk_in1_p" />
    <pin polarity="Input" x="0" y="144" name="clk_in1_n" />
    <pin polarity="Output" x="608" y="80" name="clk_out1" />
    <graph>
        <text style="fontsize:40;fontname:Arial" x="32" y="32">clockgen</text>
        <rect width="544" x="32" y="32" height="1056" />
        <line x2="32" y1="112" y2="112" x1="0" />
        <attrtext style="fontsize:24;fontname:Arial" attrname="PinName" x="36" y="112" type="pin clk_in1_p" />
        <line x2="32" y1="144" y2="144" x1="0" />
        <attrtext style="fontsize:24;fontname:Arial" attrname="PinName" x="36" y="144" type="pin clk_in1_n" />
        <line x2="576" y1="80" y2="80" x1="608" />
        <attrtext style="alignment:RIGHT;fontsize:24;fontname:Arial" attrname="PinName" x="572" y="80" type="pin clk_out1" />
    </graph>
</symbol>
